Teil 5 Daten auf Plausibilität prüfen | Analyse von Verhaltensdaten mit R
…
Nun können wir diese Anzahl vergelcihen mit der Anzahl an Zeilen in unserem Datensatz.
Theoretisch kann man aauch schauen, was einem im Envirnonment angeziegt wird, denn dort steht ebenfalls die Anzahl an Variablen und Zeilen von data.frames. Die in R eingebaute Funktion hierfür ist aber “nrow.”

nrow( ds )

## [1] 32455

Wie man sieht: wir haben mehr. Seltsam. Also mal nach einzelnen Vpn aufschlüsseln.

( sanCheck <- ds %>% group_by( participant ) %>%
  summarise(
    n()
  ) )

## # A tibble: 21 x 2
##    participant `n()`
##    <fct>       <int>
##  1 B006b-08     1536
##  2 B006b-09     1536
##  3 B006b-10     1536
##  4 B006b-11     1536
##  5 B006b-12     1536
##  6 B006b-13     1536
##  7 B006b-14     1536
##  8 B006b-15     1774
##  9 B006b-16     1536
## 10 B006b-17     1536
## # … with 11 more rows

Die Funktionen “group_by” und “summarise” sind tidyverse/dplyr-Routinen; sie erstellen nicht einen data.frame, sondern einen “tibble.”
Tibbles stellen immer nur einige Zeilen dar. Um alle Zeilen zu sehen, kann man entweder den Tibble als einen dataa.frame anzeigen (auskommentierter Befehl) oder man verwendet die “print” Funktion, mit der man eine beliebge Anzahl an Zeilen darstellen kann und zeigen dabei alle Zeilen an, indem wir die Zeilenanzahl auf “Inf” setzen.

#data.frame( sanCheck )
sanCheck %>% print(Inf)

## # A tibble: 21 x 2
##    participant `n()`
##    <fct>       <int>
##  1 B006b-08     1536
##  2 B006b-09     1536
##  3 B006b-10     1536
##  4 B006b-11     1536
##  5 B006b-12     1536
##  6 B006b-13     1536
##  7 B006b-14     1536
##  8 B006b-15     1774
##  9 B006b-16     1536
## 10 B006b-17     1536
## # … with 11 more rows
…
